{
    "name": "icons",
    "css_prefix_text": "icon-",
    "css_use_suffix": false,
    "hinting": true,
    "units_per_em": 1000,
    "ascent": 850,
    "glyphs": [
        {
            "uid": "2ca44e39ba2e6be395439c93c102be86",
            "css": "team",
            "code": 59395,
            "src": "custom_icons",
            "selected": true,
            "svg": {
                "path": "M551.6 312.3A210.5 210.5 0 1 0 762.1 101.8H762.1A210.6 210.6 0 0 0 551.6 312.3ZM899.8 312.3A137.9 137.9 0 1 1 761.9 174.4 138 138 0 0 1 899.8 312.3ZM1234.1 455.3H1174A296.2 296.2 0 0 0 925.3 597 259.6 259.6 0 0 0 790.9 564.4H732.9A259.6 259.6 0 0 0 598.5 597 296.2 296.2 0 0 0 349.8 455.3H290.4A290.5 290.5 0 0 0 0 745.7V865.6C0 885.2 12.9 909 32.7 909H435.6V969.1C435.6 988.7 453.6 1000 473.8 1000H1050.7C1070.3 1000 1088.9 989.2 1088.9 969.1V909.3H1491.8C1511.5 909.3 1524.5 885.7 1524.5 865.9V749.9A290 290 0 0 0 1237.9 456.1 8.1 8.1 0 0 0 1234.1 455.3ZM441.1 836.4H72.6V749.2A217.4 217.4 0 0 1 286.5 527.9H350.3A224.9 224.9 0 0 1 541 638.7 286.4 286.4 0 0 0 441.1 836.4ZM1016.3 927.4H508.2V869.3A232.7 232.7 0 0 1 733.2 636.8H791.3A232.3 232.3 0 0 1 1016.3 869.2ZM1451.9 836.4H1083.4A286.4 286.4 0 0 0 983.7 638.7 225.6 225.6 0 0 1 1174.4 527.9H1234.1A217.9 217.9 0 0 1 1451.9 745.7V836.3ZM1205 0A210.5 210.5 0 1 0 1415.5 210.5H1415.5A210.4 210.4 0 0 0 1205 0ZM1205 348.2A137.9 137.9 0 1 1 1342.7 210.5 138 138 0 0 1 1205 348.2ZM321.3 421A210.5 210.5 0 1 0 110.8 210.5H110.8A210.4 210.4 0 0 0 321.3 421ZM321.3 72.7A137.9 137.9 0 1 1 183.4 210.5H183.4A138 138 0 0 1 321.3 72.6Z",
                "width": 1524
            },
            "search": [
                "team"
            ]
        },
        {
            "uid": "fdcd865f5c6ce4ca09a90be5627abf33",
            "css": "top",
            "code": 59394,
            "src": "custom_icons",
            "selected": true,
            "svg": {
                "path": "M773.1 371.9A31.5 31.5 0 0 0 767.2 366L650.5 280.3 672.4 137.1A27.6 27.6 0 0 0 649.1 105.5 33.5 33.5 0 0 0 640.7 105.5L497.6 127.1 411.5 10.7A28.8 28.8 0 0 0 370.9 6.5L366.7 10.7 280.9 127.4 137.8 105.5A27.6 27.6 0 0 0 106.3 128.8 33.5 33.5 0 0 0 106.3 137.2L116.7 206.3 127.7 279.2 128.1 280.2 11.3 366A27.6 27.6 0 0 0 5.4 405 31.5 31.5 0 0 0 11.3 410.9L56.5 444.2 127.4 499.8 106.2 639.8A27.6 27.6 0 0 0 129.5 671.3 33.5 33.5 0 0 0 137.8 671.3L222.2 658.4V972.3A27.9 27.9 0 0 0 250 1000 26.7 26.7 0 0 0 267.4 993.8L388.9 896.5 510.7 993.7A27.6 27.6 0 0 0 549.6 989.6 28.7 28.7 0 0 0 555.8 972.2V658.6L611.4 666.9 636.8 670.4A26.9 26.9 0 0 0 659.4 667.3 25.1 25.1 0 0 0 667 660.3H667A0.4 0.4 0 0 1 667.4 660 25.5 25.5 0 0 0 672.2 648.2H672.2V647.1A23.3 23.3 0 0 0 672.2 640.2L650.7 497.1 767.4 411.3A28.5 28.5 0 0 0 773.1 371.9ZM500.1 914.2L406.3 839.3A28.2 28.2 0 0 0 371.5 839.3L277.7 914.2V650.2L280.5 649.9 366.3 766.6A27.6 27.6 0 0 0 405.3 772.5 31.5 31.5 0 0 0 411.2 766.6L497 649.9 499.8 650.2V914.2ZM603.6 461.9A28.1 28.1 0 0 0 592.5 488.3L611.3 610.4 489.1 591.7A27.8 27.8 0 0 0 462.8 602.8L388.9 703 315.6 603.3A29.4 29.4 0 0 0 293.4 591.9 16.9 16.9 0 0 0 289.2 592.2L166.6 611 185.4 488.8A27.8 27.8 0 0 0 174.3 462.4L74.6 388.6 174.3 315.4A28.1 28.1 0 0 0 185.4 289L166.6 166.3 288.7 185.1A27.8 27.8 0 0 0 315.1 174L388.9 74.3 462.2 174A28.1 28.1 0 0 0 488.6 185.1L610.7 166.3 592 288.5A27.8 27.8 0 0 0 603.1 314.9L702.8 388.5ZM407.8 556.9V243.3L344.8 293",
                "width": 778
            },
            "search": [
                "top"
            ]
        },
        {
            "uid": "0ab6de92719048aa044332f9f9f39d7b",
            "css": "home",
            "code": 59393,
            "src": "custom_icons",
            "selected": true,
            "svg": {
                "path": "M1209.1 475.7L660.6 32.3 630.4 7.2A30.8 30.8 0 0 0 590.9 7.2L432.7 138.5V83A31.1 31.1 0 0 0 401.7 52.1H283A31.1 31.1 0 0 0 252 83V288L11.4 484A30.9 30.9 0 0 0 7 527.6 30.9 30.9 0 0 0 51 532L144.8 455.6V969A31.1 31.1 0 0 0 175.8 1000H506.8A31.1 31.1 0 0 0 537.8 969V728.5H682.4V969A31.1 31.1 0 0 0 713.4 1000H1044.8A31.1 31.1 0 0 0 1075.7 969V448L1170.4 524A30 30 0 0 0 1189.8 530.8 31 31 0 0 0 1209.2 475.7ZM313.9 114H369.9V188L313.9 233.6ZM1014.2 406.6V938.1H744.7V697.5A31.1 31.1 0 0 0 713.7 666.6H506.8A31.1 31.1 0 0 0 475.9 697.5V938.1H206.4V406.6L326.8 306.6S609.2 75.2 610.8 72.2ZM1014.2 406.6",
                "width": 1221
            },
            "search": [
                "home"
            ]
        },
        {
            "uid": "4ac37344ff1777d236e34d81836346c2",
            "css": "clabe",
            "code": 59392,
            "src": "custom_icons",
            "selected": true,
            "svg": {
                "path": "M1279.3 50.3A472.7 472.7 0 0 0 1078.8 94.8V67.9A68.1 68.1 0 0 0 1010.7-0.2H197A68.1 68.1 0 0 0 128.9 67.9V236.2A68.1 68.1 0 0 0 197 304.3H858.9A437.8 437.8 0 0 0 838.3 348.5H69A68.7 68.7 0 0 0 0 416.6V584.8A68.7 68.7 0 0 0 69 652.9H821.5A402 402 0 0 0 835.7 695.3H201.7A68.1 68.1 0 0 0 133.6 763.4V931.8A68.1 68.1 0 0 0 201.7 999.9H1015.4A67.9 67.9 0 0 0 1079.2 955.7 474.9 474.9 0 1 0 1279.2 50.2ZM1039.2 68.1V115H1040.2A474.6 474.6 0 0 0 920.5 214.4V39.5H1010.4A28.7 28.7 0 0 1 1039.2 68.1ZM623.1 265.3V39.4H881.1V265.3ZM583.8 265.3H326.1V39.4H584V265.3ZM167.8 236.3V68.1A28.7 28.7 0 0 1 196.5 39.4H286.4V265.3H196.5A28.9 28.9 0 0 1 167.7 236.4ZM499.1 388.3H757.1V614.2H499.1ZM459.8 613.9H201.8V388.1H459.8ZM39.9 585.2V417A29 29 0 0 1 69.1 388.3H162.4V614.2H69A29.3 29.3 0 0 1 39.9 585.3ZM796.2 613.9V388.1H824.4A470.8 470.8 0 0 0 804.1 525.3 464 464 0 0 0 812.5 614ZM881.3 784.7V961.1H623.4V735.2H853.1A456.3 456.3 0 0 0 881.3 784.8ZM584 961.1H325.9V735.2H583.9ZM173.1 932.4V764.2A28.7 28.7 0 0 1 201.8 735.5H286.6V961.1H201.8A28.8 28.8 0 0 1 173.1 932.4ZM1015.8 961.1H920.7V836.6A483.5 483.5 0 0 0 1043.9 938 29.1 29.1 0 0 1 1015.8 961.1ZM1279.3 961.1A435.8 435.8 0 1 1 1715.1 525.3 436.4 436.4 0 0 1 1279.3 961.1ZM1279.3 206.9A318.7 318.7 0 1 0 1598 525.6 319 319 0 0 0 1279.3 206.9ZM1279.3 804.8A279.3 279.3 0 1 1 1558.6 525.5 279.6 279.6 0 0 1 1279.3 804.8ZM1257.9 763.1V704.4A228.3 228.3 0 0 1 1149.7 676L1167.3 631.3A195.6 195.6 0 0 0 1265.3 657.7C1307.8 657.7 1342.8 637.9 1342.8 605.6 1342.8 576.4 1321.5 561.6 1269.6 544.2 1194.1 518.6 1157.6 492.9 1157.6 443.1 1157.6 394.8 1200 358.2 1262.2 350.8V287.7H1303.9V348.7A211.5 211.5 0 0 1 1394.6 372.1L1377.1 416A177.5 177.5 0 0 0 1292.2 394.2C1252.6 394.2 1221.8 411.7 1221.8 438.9 1221.8 465.3 1238.6 478.5 1301.6 499.6 1374.8 523 1408.6 554.5 1408.6 602.1 1408.6 648.3 1369.7 692.8 1299.6 703.2V763.1Z",
                "width": 1754
            },
            "search": [
                "clabe"
            ]
        }
    ]
}